Using figsimR: Diagnosing the Variation Gap and Dissecting Community Assembly
…
#> 272  28 
#> 
#> $richness_vector
#>   [1] 6 4 6 6 4 5 6 0 6 6 4 6 5 6 6 6 5 6 4 3 4 0 6 6 4 5 4 6 5 6 6 2 5 4 6 6 6
#>  [38] 4 5 6 6 5 6 2 0 5 5 4 0 2 6 5 6 6 5 6 6 0 6 5 6 5 6 5 6 6 3 6 4 4 5 6 1 6
#>  [75] 6 6 2 4 0 3 4 6 5 5 0 1 4 4 5 0 4 4 6 5 6 0 6 0 4 3 6 5 5 5 0 5 3 4 6 6 5
#> [112] 6 6 0 4 6 6 6 4 4 4 5 6 6 0 0 6 4 6 5 4 3 5 6 5 0 5 4 4 3 6 3 0 5 4 4 4 3
#> [149] 4 0 6 0 6 3 4 4 6 4 6 4 0 0 5 6 6 5 5 6 6 6 5 2 5 5 4 6 5 6 4 5 5 5 3 0 5
#> [186] 6 6 6 6 5 6 4 5 0 4 6 4 6 5 5 6 4 6 5 6 6 6 6 5 5 6 6 6 6 6 6 4 5 6 4 6 3
#> [223] 5 0 5 6 4 5 5 5 6 5 0 6 3 6 3 6 5 5 0 4 6 6 0 6 4 6 3 4 5 4 0 4 4 6 6 5 5
#> [260] 0 4 5 6 4 6 3 3 6 6 6 6 5 4 6 5 5 5 4 2 6 6 6 6 3 6 5 6 4 5 6 4 6 0 6 6 5
#> [297] 6 6 4 0
#> 
#> $species_by_richness
#> # A tibble: 42 × 5
#>    richness Species             N_present Total_figs Proportion
#>       <dbl> <chr>                   <int>      <int>      <dbl>
#>  1        0 Apocrypta_sp                0         30        0  
#>  2        0 Apocrypta_westwoodi         0         30        0  
#>  3        0 Ceratosolen_sp              0         30        0  
#>  4        0 Sycophaga_agraensis         0         30        0  
#>  5        0 Sycophaga_mayri             0         30        0  
#>  6        0 Sycophaga_testacea          0         30        0  
#>  7        1 Apocrypta_sp                0          2        0  
#>  8        1 Apocrypta_westwoodi         1          2        0.5
#>  9        1 Ceratosolen_sp              1          2        0.5
#> 10        1 Sycophaga_agraensis         0          2        0  
#> # ℹ 32 more rows
…
